module code.byted.org/demo/rpc

go 1.17

replace github.com/apache/thrift => github.com/apache/thrift v0.13.0

require (
	code.byted.org/gopkg/logs v1.2.12
	code.byted.org/kite/kitex v1.9.2
	github.com/apache/thrift v0.13.0
)

require (
	code.byted.org/bytedtrace-contrib/kitex-go v1.1.36 // indirect
	code.byted.org/bytedtrace/bytedtrace-client-go v1.0.46 // indirect
	code.byted.org/bytedtrace/bytedtrace-common/go v0.0.12 // indirect
	code.byted.org/bytedtrace/bytedtrace-conf-provider-client-go v0.0.17 // indirect
	code.byted.org/bytedtrace/interface-go v1.0.20 // indirect
	code.byted.org/bytedtrace/serializer-go v1.0.0 // indirect
	code.byted.org/gopkg/asynccache v0.0.0-20201112072351-d630cb60c767 // indirect
	code.byted.org/gopkg/consul v1.2.2 // indirect
	code.byted.org/gopkg/ctxvalues v0.4.0 // indirect
	code.byted.org/gopkg/debug v0.10.0 // indirect
	code.byted.org/gopkg/env v1.4.11 // indirect
	code.byted.org/gopkg/etcd_util v0.0.0-20181016075009-149305e55690 // indirect
	code.byted.org/gopkg/etcdproxy v0.1.1 // indirect
	code.byted.org/gopkg/logid v0.0.0-20211104042040-f78600e482f2 // indirect
	code.byted.org/gopkg/logs/v2 v2.1.23 // indirect
	code.byted.org/gopkg/metainfo v0.1.1 // indirect
	code.byted.org/gopkg/metrics v1.4.14 // indirect
	code.byted.org/gopkg/metrics/v3 v3.1.19 // indirect
	code.byted.org/gopkg/net2 v1.4.1 // indirect
	code.byted.org/gopkg/stats v1.0.1 // indirect
	code.byted.org/gopkg/tccclient v1.4.2 // indirect
	code.byted.org/gopkg/thrift v1.4.13 // indirect
	code.byted.org/kite/endpoint v3.7.5+incompatible // indirect
	code.byted.org/log_market/gosdk v0.0.0-20220328031951-809cbf0ba485 // indirect
	code.byted.org/log_market/loghelper v0.1.9 // indirect
	code.byted.org/log_market/tracelog v0.1.4 // indirect
	code.byted.org/log_market/ttlogagent_gosdk v0.0.3 // indirect
	code.byted.org/log_market/ttlogagent_gosdk/v4 v4.0.23 // indirect
	code.byted.org/middleware/fic_client v0.2.0 // indirect
	code.byted.org/security/go-spiffe-v2 v1.0.0 // indirect
	code.byted.org/security/sensitive_finder_engine v0.3.16 // indirect
	code.byted.org/security/zti-jwt-helper-golang v1.0.9 // indirect
	code.byted.org/service_mesh/shmipc v0.2.10 // indirect
	code.byted.org/trace/trace-client-go v1.3.6 // indirect
	github.com/Knetic/govaluate v3.0.1-0.20171022003610-9aa49832a739+incompatible // indirect
	github.com/bytedance/gopkg v0.0.0-20220509134931-d1878f638986 // indirect
	github.com/choleraehyq/pid v0.0.13 // indirect
	github.com/cloudwego/kitex v0.3.2 // indirect
	github.com/cloudwego/netpoll v0.2.4 // indirect
	github.com/cloudwego/thriftgo v0.1.7 // indirect
	github.com/go-ole/go-ole v1.2.6 // indirect
	github.com/gogo/protobuf v1.3.2 // indirect
	github.com/golang/protobuf v1.5.2 // indirect
	github.com/google/uuid v1.3.0 // indirect
	github.com/gorilla/mux v1.8.0 // indirect
	github.com/json-iterator/go v1.1.12 // indirect
	github.com/klauspost/compress v1.15.4 // indirect
	github.com/modern-go/concurrent v0.0.0-20180306012644-bacd9c7ef1dd // indirect
	github.com/modern-go/reflect2 v1.0.2 // indirect
	github.com/opentracing/opentracing-go v1.2.0 // indirect
	github.com/pkg/errors v0.9.1 // indirect
	github.com/power-devops/perfstat v0.0.0-20210106213030-5aafc221ea8c // indirect
	github.com/shirou/gopsutil/v3 v3.22.1 // indirect
	github.com/sirupsen/logrus v1.8.1 // indirect
	github.com/tidwall/gjson v1.9.3 // indirect
	github.com/tidwall/match v1.1.1 // indirect
	github.com/tidwall/pretty v1.2.0 // indirect
	github.com/yusufpapurcu/wmi v1.2.2 // indirect
	github.com/zeebo/errs v1.2.2 // indirect
	golang.org/x/crypto v0.0.0-20210616213533-5ff15b29337e // indirect
	golang.org/x/net v0.0.0-20210614182718-04defd469f4e // indirect
	golang.org/x/sync v0.0.0-20210220032951-036812b2e83c // indirect
	golang.org/x/sys v0.0.0-20220513210249-45d2b4557a2a // indirect
	golang.org/x/text v0.3.6 // indirect
	golang.org/x/time v0.0.0-20220411224347-583f2d630306 // indirect
	google.golang.org/genproto v0.0.0-20210513213006-bf773b8c8384 // indirect
	google.golang.org/grpc v1.36.1 // indirect
	google.golang.org/protobuf v1.28.0 // indirect
	gopkg.in/square/go-jose.v2 v2.4.1 // indirect
	gopkg.in/yaml.v3 v3.0.0-20210107192922-496545a6307b // indirect
)
